[gd_scene load_steps=3 format=2]

[ext_resource path="res://scenes/MenuUITheme.tres" type="Theme" id=1]
[ext_resource path="res://scenes/PauseMenu.gd" type="Script" id=2]

[node name="PauseMenu" type="PopupMenu"]
visible = true
anchor_left = 0.5
anchor_top = 0.5
anchor_right = 0.5
anchor_bottom = 0.5
margin_left = -209.5
margin_top = -132.5
margin_right = 209.5
margin_bottom = 132.5
theme = ExtResource( 1 )
script = ExtResource( 2 )
__meta__ = {
"_edit_use_anchors_": false
}

[node name="VBoxContainer" type="VBoxContainer" parent="."]
anchor_right = 1.0
anchor_bottom = 1.0
margin_left = 48.0
margin_top = 10.0
margin_right = -48.0
__meta__ = {
"_edit_use_anchors_": false
}

[node name="Label" type="Label" parent="VBoxContainer"]
margin_right = 323.0
margin_bottom = 65.0
text = "Paused"
align = 1
valign = 1

[node name="HSeparator" type="HSeparator" parent="VBoxContainer"]
margin_top = 69.0
margin_right = 323.0
margin_bottom = 73.0

[node name="ResumeButton" type="Button" parent="VBoxContainer"]
margin_top = 77.0
margin_right = 323.0
margin_bottom = 152.0
text = "Resume"

[node name="HSeparator2" type="HSeparator" parent="VBoxContainer"]
margin_top = 156.0
margin_right = 323.0
margin_bottom = 160.0

[node name="ExitButton" type="Button" parent="VBoxContainer"]
margin_top = 164.0
margin_right = 323.0
margin_bottom = 239.0
text = "Exit to menu"
[connection signal="about_to_show" from="." to="." method="_on_PauseMenu_about_to_show"]
[connection signal="pressed" from="VBoxContainer/ResumeButton" to="." method="_on_ResumeButton_pressed"]
[connection signal="pressed" from="VBoxContainer/ExitButton" to="." method="_on_ExitButton_pressed"]
