[gd_scene load_steps=2 format=2]

[ext_resource path="res://scripts/TopologicalRigidBody.gd" type="Script" id=1]

[node name="TopologicalRigidBody" type="RigidBody"]
can_sleep = false
axis_lock_linear_z = true
axis_lock_angular_x = true
axis_lock_angular_y = true
script = ExtResource( 1 )
