[gd_scene load_steps=3 format=2]

[ext_resource path="res://fonts/Melon-Slices.otf" type="DynamicFontData" id=1]

[sub_resource type="DynamicFont" id=1]
size = 64
use_filter = true
font_data = ExtResource( 1 )

[node name="TransitionScreen" type="ColorRect"]
anchor_right = 1.0
anchor_bottom = 1.0
color = Color( 0.141176, 0.360784, 0.117647, 1 )
__meta__ = {
"_edit_use_anchors_": false
}

[node name="Label" type="Label" parent="."]
anchor_left = 0.5
anchor_top = 0.5
anchor_right = 0.5
anchor_bottom = 0.5
margin_left = -74.5
margin_top = -32.5
margin_right = 74.5
margin_bottom = 32.5
custom_fonts/font = SubResource( 1 )
text = "Level 1"
align = 1
valign = 1
